^C:\USERS\MATT\FIVE-VECTORS\BIGROOM-MODELS\AUDIOMODEL_20211007\AVMODEL_VISUALSTUDIO_20211102\YOLOV5_TRT\YOLOLAYER.CU
setlocal
cd C:\Users\matt\five-vectors\bigroom-models\audioModel_20211007\AVModel_VisualStudio_20211102\yolov5_trt\build\CMakeFiles\yolov5_plugins.dir
if %errorlevel% neq 0 goto :cmEnd
C:
if %errorlevel% neq 0 goto :cmEnd
"C:\Program Files\CMake\bin\cmake.exe" -E make_directory C:/Users/matt/five-vectors/bigroom-models/audioModel_20211007/AVModel_VisualStudio_20211102/yolov5_trt/build/CMakeFiles/yolov5_plugins.dir//Release
if %errorlevel% neq 0 goto :cmEnd
"C:\Program Files\CMake\bin\cmake.exe" -D verbose:BOOL=OFF -D "CCBIN:PATH=C:\Program Files (x86)\Microsoft Visual Studio\2019\Community\VC\Tools/MSVC/14.29.30133/bin/Hostx64/x64" -D build_configuration:STRING=Release -D generated_file:STRING=C:/Users/matt/five-vectors/bigroom-models/audioModel_20211007/AVModel_VisualStudio_20211102/yolov5_trt/build/CMakeFiles/yolov5_plugins.dir//Release/yolov5_plugins_generated_yololayer.cu.obj -D generated_cubin_file:STRING=C:/Users/matt/five-vectors/bigroom-models/audioModel_20211007/AVModel_VisualStudio_20211102/yolov5_trt/build/CMakeFiles/yolov5_plugins.dir//Release/yolov5_plugins_generated_yololayer.cu.obj.cubin.txt -P C:/Users/matt/five-vectors/bigroom-models/audioModel_20211007/AVModel_VisualStudio_20211102/yolov5_trt/build/CMakeFiles/yolov5_plugins.dir//yolov5_plugins_generated_yololayer.cu.obj.Release.cmake
if %errorlevel% neq 0 goto :cmEnd
:cmEnd
endlocal & call :cmErrorLevel %errorlevel% & goto :cmDone
:cmErrorLevel
exit /b %1
:cmDone
if %errorlevel% neq 0 goto :VCEnd
^C:\USERS\MATT\FIVE-VECTORS\BIGROOM-MODELS\AUDIOMODEL_20211007\AVMODEL_VISUALSTUDIO_20211102\YOLOV5_TRT\CMAKELISTS.TXT
setlocal
"C:\Program Files\CMake\bin\cmake.exe" -SC:/Users/matt/five-vectors/bigroom-models/audioModel_20211007/AVModel_VisualStudio_20211102/yolov5_trt -BC:/Users/matt/five-vectors/bigroom-models/audioModel_20211007/AVModel_VisualStudio_20211102/yolov5_trt/build --check-stamp-file C:/Users/matt/five-vectors/bigroom-models/audioModel_20211007/AVModel_VisualStudio_20211102/yolov5_trt/build/CMakeFiles/generate.stamp
if %errorlevel% neq 0 goto :cmEnd
:cmEnd
endlocal & call :cmErrorLevel %errorlevel% & goto :cmDone
:cmErrorLevel
exit /b %1
:cmDone
if %errorlevel% neq 0 goto :VCEnd
