^C:\USERS\MATT\FIVE-VECTORS\BIGROOM-MODELS\AUDIOMODEL_20211007\AVMODEL_VISUALSTUDIO_20211102\YOLOV5_TRT\BUILD\CMAKEFILES\3225DA94EAFEB34014758DBF85EE5F30\GENERATE.STAMP.RULE
setlocal
"C:\Program Files\CMake\bin\cmake.exe" -SC:/Users/matt/five-vectors/bigroom-models/audioModel_20211007/AVModel_VisualStudio_20211102/yolov5_trt -BC:/Users/matt/five-vectors/bigroom-models/audioModel_20211007/AVModel_VisualStudio_20211102/yolov5_trt/build --check-stamp-list CMakeFiles/generate.stamp.list --vs-solution-file C:/Users/matt/five-vectors/bigroom-models/audioModel_20211007/AVModel_VisualStudio_20211102/yolov5_trt/build/yolov5.sln
if %errorlevel% neq 0 goto :cmEnd
:cmEnd
endlocal & call :cmErrorLevel %errorlevel% & goto :cmDone
:cmErrorLevel
exit /b %1
:cmDone
if %errorlevel% neq 0 goto :VCEnd
