^C:\USERS\MATT\FIVE-VECTORS\BIGROOM-MODELS\AUDIOMODEL_20211007\AVMODEL_VISUALSTUDIO_20211102\CMAKELISTS.TXT
setlocal
"C:\Program Files\CMake\bin\cmake.exe" -SC:/Users/matt/five-vectors/bigroom-models/audioModel_20211007/AVModel_VisualStudio_20211102 -BC:/Users/matt/five-vectors/bigroom-models/audioModel_20211007/AVModel_VisualStudio_20211102/build --check-stamp-file C:/Users/matt/five-vectors/bigroom-models/audioModel_20211007/AVModel_VisualStudio_20211102/build/CMakeFiles/generate.stamp
if %errorlevel% neq 0 goto :cmEnd
:cmEnd
endlocal & call :cmErrorLevel %errorlevel% & goto :cmDone
:cmErrorLevel
exit /b %1
:cmDone
if %errorlevel% neq 0 goto :VCEnd
