^C:\USERS\MATT\FIVE-VECTORS\BIGROOM-MODELS\AUDIOMODEL_20211007\AVMODEL_VISUALSTUDIO_20211102\BUILD\LIVELIVELIVELIVE_AVMV100.DIR\RELEASE\AV_MODEL_202111.OBJ
C:\PROGRAM FILES\NVIDIA GPU COMPUTING TOOLKIT\CUDA\V11.1\LIB\X64\CUBLAS.LIB
C:\USERS\MATT\DESKTOP\LIVELIVELIVE\TENSORRT-7.2.1.6\LIB\NVINFER.LIB
C:\USERS\MATT\FIVE-VECTORS\BIGROOM-MODELS\AUDIOMODEL_20211007\AVMODEL_VISUALSTUDIO_20211102\LIBS\YOLOV5_PLUGINS.LIB
C:\USERS\MATT\FIVE-VECTORS\BIGROOM-MODELS\AUDIOMODEL_20211007\AVMODEL_VISUALSTUDIO_20211102\LIBS\YOLOV5.LIB
C:\PROGRAM FILES\NVIDIA GPU COMPUTING TOOLKIT\CUDA\V11.1\LIB\X64\CUDART_STATIC.LIB
C:\USERS\MATT\DESKTOP\LIVELIVELIVE\LIBTORCH\LIB\C10.LIB
C:\USERS\MATT\DESKTOP\LIVELIVELIVE\LIBTORCH\LIB\KINETO.LIB
C:\PROGRAM FILES\NVIDIA CORPORATION\NVTOOLSEXT\LIB\X64\NVTOOLSEXT64_1.LIB
C:\USERS\MATT\DESKTOP\LIVELIVELIVE\LIBTORCH\LIB\CAFFE2_NVRTC.LIB
C:\USERS\MATT\DESKTOP\LIVELIVELIVE\LIBTORCH\LIB\C10_CUDA.LIB
C:\QT\5.15.1\MSVC2019_64\LIB\QT5CORE.LIB
C:\USERS\MATT\DESKTOP\LIVELIVELIVE\OPENCV\BUILD\X64\VC15\LIB\OPENCV_WORLD430.LIB
C:\USERS\MATT\DESKTOP\LIVELIVELIVE\LIBTORCH\LIB\TORCH.LIB
C:\USERS\MATT\DESKTOP\LIVELIVELIVE\LIBTORCH\LIB\TORCH_CUDA.LIB
C:\USERS\MATT\DESKTOP\LIVELIVELIVE\LIBTORCH\LIB\TORCH_CUDA_CU.LIB
C:\USERS\MATT\DESKTOP\LIVELIVELIVE\LIBTORCH\LIB\TORCH_CUDA_CPP.LIB
C:\USERS\MATT\DESKTOP\LIVELIVELIVE\LIBTORCH\LIB\TORCH_CPU.LIB
C:\PROGRAM FILES\NVIDIA GPU COMPUTING TOOLKIT\CUDA\V11.1\LIB\X64\CUFFT.LIB
C:\PROGRAM FILES\NVIDIA GPU COMPUTING TOOLKIT\CUDA\V11.1\LIB\X64\CURAND.LIB
C:\USERS\MATT\DESKTOP\LIVELIVELIVE\CUDA\LIB\X64\CUDNN.LIB
C:\PROGRAM FILES (X86)\WINDOWS KITS\10\LIB\10.0.19041.0\UM\X64\KERNEL32.LIB
C:\PROGRAM FILES (X86)\WINDOWS KITS\10\LIB\10.0.19041.0\UM\X64\USER32.LIB
C:\PROGRAM FILES (X86)\WINDOWS KITS\10\LIB\10.0.19041.0\UM\X64\GDI32.LIB
C:\PROGRAM FILES (X86)\WINDOWS KITS\10\LIB\10.0.19041.0\UM\X64\WINSPOOL.LIB
C:\PROGRAM FILES (X86)\WINDOWS KITS\10\LIB\10.0.19041.0\UM\X64\SHELL32.LIB
C:\PROGRAM FILES (X86)\WINDOWS KITS\10\LIB\10.0.19041.0\UM\X64\OLE32.LIB
C:\PROGRAM FILES (X86)\WINDOWS KITS\10\LIB\10.0.19041.0\UM\X64\OLEAUT32.LIB
C:\PROGRAM FILES (X86)\WINDOWS KITS\10\LIB\10.0.19041.0\UM\X64\UUID.LIB
C:\PROGRAM FILES (X86)\WINDOWS KITS\10\LIB\10.0.19041.0\UM\X64\COMDLG32.LIB
C:\PROGRAM FILES (X86)\WINDOWS KITS\10\LIB\10.0.19041.0\UM\X64\ADVAPI32.LIB
C:\USERS\MATT\FIVE-VECTORS\BIGROOM-MODELS\AUDIOMODEL_20211007\AVMODEL_VISUALSTUDIO_20211102\BUILD\LIVELIVELIVELIVE_AVMV100.DIR\RELEASE\AV_MODEL_202111.OBJ
C:\PROGRAM FILES (X86)\MICROSOFT VISUAL STUDIO\2019\COMMUNITY\VC\TOOLS\MSVC\14.29.30133\BIN\HOSTX64\X64\1033\LINKUI.DLL
C:\WINDOWS\GLOBALIZATION\SORTING\SORTDEFAULT.NLS
C:\PROGRAM FILES (X86)\MICROSOFT VISUAL STUDIO\2019\COMMUNITY\VC\TOOLS\MSVC\14.29.30133\LIB\X64\MSVCPRT.LIB
C:\PROGRAM FILES (X86)\MICROSOFT VISUAL STUDIO\2019\COMMUNITY\VC\TOOLS\MSVC\14.29.30133\LIB\X64\MSVCRT.LIB
C:\PROGRAM FILES (X86)\MICROSOFT VISUAL STUDIO\2019\COMMUNITY\VC\TOOLS\MSVC\14.29.30133\LIB\X64\OLDNAMES.LIB
C:\PROGRAM FILES (X86)\WINDOWS KITS\10\LIB\10.0.19041.0\UM\X64\VERSION.LIB
C:\PROGRAM FILES (X86)\MICROSOFT VISUAL STUDIO\2019\COMMUNITY\VC\TOOLS\MSVC\14.29.30133\LIB\X64\VCRUNTIME.LIB
C:\PROGRAM FILES (X86)\WINDOWS KITS\10\LIB\10.0.19041.0\UCRT\X64\UCRT.LIB
C:\PROGRAM FILES (X86)\MICROSOFT VISUAL STUDIO\2019\COMMUNITY\VC\TOOLS\MSVC\14.29.30133\BIN\HOSTX64\X64\CVTRES.EXE
C:\PROGRAM FILES (X86)\MICROSOFT VISUAL STUDIO\2019\COMMUNITY\VC\TOOLS\MSVC\14.29.30133\BIN\HOSTX64\X64\VCTIP.EXE
